…
This is readable, but can clutter up your workspace with lots of objects that you have to name individually. With multiple steps, that can be hard to keep track of.

You can also nest functions (i.e. one function inside of another), like this:

penguins_Biscoe <- select(filter(penguins, island == "Biscoe"),  species, body_mass_g, sex)

This is handy, but can be difficult to read if too many functions are nested, as R evaluates the expression from the inside out (in this case, filtering, then selecting).

The last option, pipes, are a powerful addition to R. Pipes let you take the output of one function and send it directly to the next, which is useful when you need to do many things to the same dataset. Pipes in R look like %>% and are made available via the magrittr package, installed automatically with dplyr. If you use RStudio, you can type the pipe with Ctrl + Shift + M if you have a PC or Cmd + Shift + M if you have a Mac.

penguins %>%
    filter(island == "Biscoe") %>%
    select(species, body_mass_g, sex)

## # A tibble: 168 x 3
##    species body_mass_g sex   
##    <fct>         <int> <fct> 
##  1 Adelie         3400 female
##  2 Adelie         3600 male  
##  3 Adelie         3800 female
##  4 Adelie         3950 male  
##  5 Adelie         3800 male  
##  6 Adelie         3800 female
##  7 Adelie         3550 male  
##  8 Adelie         3200 female
##  9 Adelie         3150 female
## 10 Adelie         3950 male  
## # … with 158 more rows

In the above code, we use the pipe to send the penguins dataset first through filter() to keep rows where island is “Biscoe”, then through select() to keep only the species, body_mass_g,and sex columns. Since %>% takes the object on its left and passes it as the first argument to the function on its right, we don’t need to explicitly include the data frame as an argument to the filter() and select() functions any more.

Some may find it helpful to read the pipe like the word “then”. For instance, in the above example, we take the data frame penguins, then we filter for rows with island == "Biscoe", then we select columns species, body_mass_g,and sex. The dplyr functions by themselves are somewhat simple, but by combining them into linear workflows with the pipe, we can accomplish more complex manipulations of data frames.

If we want to create a new object with this smaller version of the data, we can assign it a new name:

penguins_biscoe <- penguins %>%
    filter(island == "Biscoe") %>%
    select(species, body_mass_g, sex)

penguins_biscoe

## # A tibble: 168 x 3
##    species body_mass_g sex   
##    <fct>         <int> <fct> 
##  1 Adelie         3400 female
##  2 Adelie         3600 male  
##  3 Adelie         3800 female
##  4 Adelie         3950 male  
##  5 Adelie         3800 male  
##  6 Adelie         3800 female
##  7 Adelie         3550 male  
##  8 Adelie         3200 female
##  9 Adelie         3150 female
## 10 Adelie         3950 male  
## # … with 158 more rows
…
penguins %>%
    filter(species != "Adelie") %>%
    select(bill_length_mm, bill_depth_mm)

Mutate

Frequently you’ll want to create new columns based on the values in existing columns, for example to do unit conversions, or to find the ratio of values in two columns. For this we’ll use mutate().

We might be interested in the flipper length of penguins in cm instead of milimeters:

penguins %>%
    mutate(flipper_length_cm = flipper_length_mm / 10)

## # A tibble: 344 x 9
##    species island bill_length_mm bill_depth_mm flipper_length_… body_mass_g
##    <fct>   <fct>           <dbl>         <dbl>            <int>       <int>
##  1 Adelie  Torge…           39.1          18.7              181        3750
##  2 Adelie  Torge…           39.5          17.4              186        3800
##  3 Adelie  Torge…           40.3          18                195        3250
##  4 Adelie  Torge…           NA            NA                 NA          NA
##  5 Adelie  Torge…           36.7          19.3              193        3450
##  6 Adelie  Torge…           39.3          20.6              190        3650
##  7 Adelie  Torge…           38.9          17.8              181        3625
##  8 Adelie  Torge…           39.2          19.6              195        4675
##  9 Adelie  Torge…           34.1          18.1              193        3475
## 10 Adelie  Torge…           42            20.2              190        4250
## # … with 334 more rows, and 3 more variables: sex <fct>, year <int>,
## #   flipper_length_cm <dbl>
…
